<?xml version="1.0" encoding="UTF-8" standalone="no"?>
<svg
   xmlns:dc="http://purl.org/dc/elements/1.1/"
   xmlns:cc="http://creativecommons.org/ns#"
   xmlns:rdf="http://www.w3.org/1999/02/22-rdf-syntax-ns#"
   xmlns:svg="http://www.w3.org/2000/svg"
   xmlns="http://www.w3.org/2000/svg"
   xmlns:sodipodi="http://sodipodi.sourceforge.net/DTD/sodipodi-0.dtd"
   xmlns:inkscape="http://www.inkscape.org/namespaces/inkscape"
   width="100"
   height="100"
   viewBox="0 0 26.458333 26.458334"
   version="1.1"
   id="svg8"
   inkscape:version="1.0.2 (e86c870879, 2021-01-15)"
   sodipodi:docname="gui.svg"
   inkscape:export-filename="/home/nick/projects/tickle/tickle-editor/src/main/resources/uk/co/nickthecoder/tickle/editor/gui.png"
   inkscape:export-xdpi="96"
   inkscape:export-ydpi="96">
  <defs
     id="defs2" />
  <sodipodi:namedview
     id="base"
     pagecolor="#ffffff"
     bordercolor="#666666"
     borderopacity="1.0"
     inkscape:pageopacity="0.0"
     inkscape:pageshadow="2"
     inkscape:zoom="31.678384"
     inkscape:cx="20.874115"
     inkscape:cy="8.6437486"
     inkscape:document-units="px"
     inkscape:current-layer="layer1"
     inkscape:document-rotation="0"
     showgrid="true"
     units="px"
     inkscape:window-width="1920"
     inkscape:window-height="1007"
     inkscape:window-x="0"
     inkscape:window-y="0"
     inkscape:window-maximized="1">
    <inkscape:grid
       type="xygrid"
       id="grid843" />
  </sodipodi:namedview>
  <metadata
     id="metadata5">
    <rdf:RDF>
      <cc:Work
         rdf:about="">
        <dc:format>image/svg+xml</dc:format>
        <dc:type
           rdf:resource="http://purl.org/dc/dcmitype/StillImage" />
        <dc:title></dc:title>
      </cc:Work>
    </rdf:RDF>
  </metadata>
  <g
     inkscape:label="Layer 1"
     inkscape:groupmode="layer"
     id="layer1">
    <g
       id="resize"
       transform="translate(0.26458335,0.26458335)">
      <rect
         style="fill:#000000;fill-opacity:1;stroke:none;stroke-width:0.171919;stroke-linecap:round;stroke-miterlimit:3.7;stroke-dasharray:none"
         id="rect841"
         width="2.6458333"
         height="2.6458333"
         x="0"
         y="0" />
      <rect
         style="fill:#ffffff;fill-opacity:1;stroke:none;stroke-width:0.136285;stroke-linecap:round;stroke-miterlimit:3.7;stroke-dasharray:none"
         id="rect847"
         width="2.1166668"
         height="2.1166668"
         x="0.26458332"
         y="0.26458332" />
    </g>
    <g
       id="arrow"
       inkscape:export-xdpi="96"
       inkscape:export-ydpi="96"
       transform="translate(0.52916669)">
      <path
         id="rect973"
         style="fill:#000000;fill-opacity:1;stroke:none;stroke-width:0.367195;stroke-linecap:round;stroke-miterlimit:3.7;stroke-dasharray:none"
         d="M 2.9104167,0 3.3075627,-2e-8 5.8208333,1.4324311 V 1.7363012 L 3.2962288,3.1750001 2.9104167,3.175 Z"
         sodipodi:nodetypes="ccccccc" />
      <path
         id="path996"
         style="fill:#ffffff;fill-opacity:1;stroke:none;stroke-width:0.275;stroke-linecap:round;stroke-miterlimit:3.7;stroke-dasharray:none"
         d="M 3.175,0.26458333 5.55625,1.5875 3.175,2.9104167 Z"
         sodipodi:nodetypes="cccc" />
    </g>
    <g
       id="g1006"
       transform="translate(8.8524791,1.0583335)"
       inkscape:export-xdpi="96"
       inkscape:export-ydpi="96">
      <rect
         style="fill:#000000;fill-opacity:1;stroke:none;stroke-width:0.0214899;stroke-linecap:round;stroke-miterlimit:3.7;stroke-dasharray:none"
         id="rect1002"
         width="0.26458308"
         height="0.26458332"
         x="0.40793785"
         y="1.8520833" />
    </g>
    <g
       id="g1012"
       transform="translate(6.6145834,0.26458321)">
      <rect
         style="fill:#000000;fill-opacity:1;stroke:none;stroke-width:0.171919;stroke-linecap:round;stroke-miterlimit:3.7;stroke-dasharray:none"
         id="rect1008"
         width="2.6458333"
         height="2.6458333"
         x="0"
         y="0" />
      <rect
         style="fill:#ffffff;fill-opacity:1;stroke:none;stroke-width:0.136285;stroke-linecap:round;stroke-miterlimit:3.7;stroke-dasharray:none"
         id="rect1010"
         width="2.1166668"
         height="2.1166668"
         x="0.26458332"
         y="0.26458332" />
    </g>
  </g>
</svg>
