{
  "director": "uk.co.nickthecoder.tickle.NoDirector",
  "background": "#001a80",
  "showMouse": true,
  "layout": "menu",
  "snapToGrid": {
    "enabled": false,
    "xSpacing": 50,
    "ySpacing": 50,
    "xOffset": 0,
    "yOffset": 0,
    "xCloseness": 10,
    "yCloseness": 10
  },
  "snapToGuides": {
    "enabled": true,
    "closeness": 5,
    "x": [
      
    ],
    "y": [
      
    ]
  },
  "snapToOthers": {
    "enabled": true,
    "xCloseness": 10,
    "yCloseness": 10
  },
  "snapRotation": {
    "enabled": true,
    "step": 15,
    "closeness": 15
  },
  "include": [
    
  ],
  "stages": [
    {
      "name": "main",
      "actors": [
        {
          "costume": "SceneButton",
          "x": 483.3,
          "y": 536.2,
          "text": "Unscaled",
          "attributes": [
            {
              "name": "scene",
              "value": "unscaled"
            }
          ]
        },
        {
          "costume": "red",
          "x": 819.3199999999999,
          "y": 795.28
        },
        {
          "costume": "red",
          "x": 998.6399999999999,
          "y": 607.18
        },
        {
          "costume": "red",
          "x": -0.17999999999994998,
          "y": 146.16000000000003
        },
        {
          "costume": "red",
          "x": 151.52000000000004,
          "y": -1.759999999999934
        },
        {
          "costume": "QuitButton",
          "x": 893.3719999999998,
          "y": 40.39200000000005,
          "text": "Quit"
        },
        {
          "costume": "SceneButton",
          "x": 476,
          "y": 602.8,
          "text": "Letter Box",
          "textColor": "#ffff99ff",
          "attributes": [
            {
              "name": "scene",
              "value": "menu"
            }
          ]
        },
        {
          "costume": "background",
          "name": "background",
          "x": 0,
          "y": 0,
          "sizeX": 1000,
          "sizeY": 800,
          "alignmentX": 0,
          "alignmentY": 0
        },
        {
          "costume": "SceneButton",
          "x": 481.88,
          "y": 464.88,
          "text": "Smart",
          "attributes": [
            {
              "name": "scene",
              "value": "smart"
            }
          ]
        },
        {
          "costume": "small",
          "x": 25.82000000000005,
          "y": 701.4,
          "text": "Letterboxed.\nEasy - no code - no gotchas!\nLooks a little naff though!"
        },
        {
          "costume": "white",
          "x": 987,
          "y": 797.5
        },
        {
          "costume": "white",
          "x": 0,
          "y": 0
        }
      ]
    }
  ]
}