{
  "director": "uk.co.nickthecoder.tickle.NoDirector",
  "background": "#001a80",
  "showMouse": true,
  "layout": "smart",
  "snapToGrid": {
    "enabled": false,
    "xSpacing": 50,
    "ySpacing": 50,
    "xOffset": 0,
    "yOffset": 0,
    "xCloseness": 10,
    "yCloseness": 10
  },
  "snapToGuides": {
    "enabled": true,
    "closeness": 5,
    "x": [
      
    ],
    "y": [
      
    ]
  },
  "snapToOthers": {
    "enabled": true,
    "xCloseness": 10,
    "yCloseness": 10
  },
  "snapRotation": {
    "enabled": true,
    "step": 15,
    "closeness": 15
  },
  "include": [
    
  ],
  "stages": [
    {
      "name": "main",
      "actors": [
        {
          "costume": "SceneButton",
          "x": 465.3,
          "y": 377.20000000000005,
          "text": "Unscaled",
          "textVAlignment": "CENTER",
          "textOutlineColor": "#00000000",
          "autoPositionAlignmentX": 0.5,
          "autoPositionAlignmentY": 0.5,
          "direction": 0,
          "scaleX": 1,
          "scaleY": 1,
          "attributes": [
            {
              "name": "scene",
              "value": "unscaled"
            }
          ]
        },
        {
          "costume": "red",
          "x": 819.3199999999999,
          "y": 795.28,
          "autoPositionAlignmentX": 1,
          "autoPositionAlignmentY": 1,
          "direction": 0,
          "scaleX": 1,
          "scaleY": 1
        },
        {
          "costume": "red",
          "x": 998.6399999999999,
          "y": 607.18,
          "autoPositionAlignmentX": 1,
          "autoPositionAlignmentY": 1,
          "direction": 0,
          "scaleX": 1,
          "scaleY": 1
        },
        {
          "costume": "red",
          "x": -0.17999999999994998,
          "y": 146.16000000000003,
          "direction": 0,
          "scaleX": 1,
          "scaleY": 1
        },
        {
          "costume": "red",
          "x": 151.52000000000004,
          "y": -1.759999999999934,
          "direction": 0,
          "scaleX": 1,
          "scaleY": 1
        },
        {
          "costume": "QuitButton",
          "x": 893.3719999999998,
          "y": 40.39200000000005,
          "text": "Quit",
          "textOutlineColor": "#00000000",
          "autoPositionAlignmentX": 1,
          "direction": 0,
          "scaleX": 1,
          "scaleY": 1
        },
        {
          "costume": "SceneButton",
          "x": 460,
          "y": 471.79999999999995,
          "text": "Letter Box",
          "textVAlignment": "CENTER",
          "textOutlineColor": "#00000000",
          "autoPositionAlignmentX": 0.5,
          "autoPositionAlignmentY": 0.5,
          "direction": 0,
          "scaleX": 1,
          "scaleY": 1,
          "attributes": [
            {
              "name": "scene",
              "value": "menu"
            }
          ]
        },
        {
          "costume": "SceneButton",
          "x": 465.38,
          "y": 295.88,
          "text": "Smart",
          "textVAlignment": "CENTER",
          "textColor": "#ffff99ff",
          "textOutlineColor": "#00000000",
          "autoPositionAlignmentX": 0.5,
          "autoPositionAlignmentY": 0.5,
          "direction": 0,
          "scaleX": 1,
          "scaleY": 1,
          "attributes": [
            {
              "name": "scene",
              "value": "smart"
            }
          ]
        },
        {
          "costume": "white",
          "x": 991.04,
          "y": 793.1199999999999,
          "direction": 0,
          "scaleX": 1,
          "scaleY": 1
        },
        {
          "costume": "white",
          "x": 0,
          "y": 0,
          "direction": 0,
          "scaleX": 1,
          "scaleY": 1
        },
        {
          "costume": "small",
          "x": 22.440000000000055,
          "y": 615.96,
          "text": "Smart\nUsing a COMBINATION of autoScale:FIT_Y\nas well as auto-positioning.\nUnless the window is stetched really tall, everything works nicely.\nWe could use AutoScale.AVERAGE, or CROP,\nbut then this text would begin to merge with the menu items.",
          "textOutlineColor": "#00000000",
          "autoPositionAlignmentY": 1,
          "direction": 0,
          "scaleX": 1,
          "scaleY": 1
        }
      ]
    }
  ]
}