{
  "director": "uk.co.nickthecoder.tickle.NoDirector",
  "background": "#000000",
  "showMouse": true,
  "layout": "default",
  "snapToGrid": {
    "enabled": false,
    "xSpacing": 50,
    "ySpacing": 50,
    "xOffset": 0,
    "yOffset": 0,
    "xCloseness": 10,
    "yCloseness": 10
  },
  "snapToGuides": {
    "enabled": true,
    "closeness": 5,
    "x": [
      
    ],
    "y": [
      
    ]
  },
  "snapToOthers": {
    "enabled": true,
    "xCloseness": 10,
    "yCloseness": 10
  },
  "snapRotation": {
    "enabled": true,
    "step": 15,
    "closeness": 15
  },
  "include": [
    
  ],
  "stages": [
    {
      "name": "main",
      "actors": [
        {
          "costume": "path",
          "name": "line",
          "x": 246.5,
          "y": 389,
          "attributes": [
            {
              "name": "type",
              "value": "LINE"
            }
          ]
        },
        {
          "costume": "path",
          "name": "box",
          "x": 251,
          "y": 531,
          "attributes": [
            {
              "name": "type",
              "value": "BOX"
            }
          ]
        },
        {
          "costume": "path",
          "name": "saussage",
          "x": 250.5,
          "y": 662.5,
          "attributes": [
            {
              "name": "type",
              "value": "SAUSSAGE"
            }
          ]
        },
        {
          "costume": "path",
          "name": "bezier",
          "x": 246,
          "y": 231.5,
          "attributes": [
            {
              "name": "type",
              "value": "BEZIER"
            }
          ]
        },
        {
          "costume": "textFollow",
          "x": 105,
          "y": 249,
          "text": "bezier",
          "textOutlineColor": "#00000000",
          "attributes": [
            {
              "name": "follow",
              "value": "bezier"
            }
          ]
        },
        {
          "costume": "textFollow",
          "x": 146,
          "y": 544,
          "text": "box",
          "textOutlineColor": "#00000000",
          "attributes": [
            {
              "name": "follow",
              "value": "box"
            }
          ]
        },
        {
          "costume": "textFollow",
          "x": 95,
          "y": 689,
          "text": "saussage",
          "textOutlineColor": "#00000000",
          "attributes": [
            {
              "name": "follow",
              "value": "saussage"
            }
          ]
        },
        {
          "costume": "textFollow",
          "x": 143,
          "y": 401.5,
          "text": "line",
          "textOutlineColor": "#00000000",
          "attributes": [
            {
              "name": "follow",
              "value": "line"
            }
          ]
        },
        {
          "costume": "path",
          "name": "bezierLoop",
          "x": 245,
          "y": 67.5,
          "attributes": [
            {
              "name": "type",
              "value": "BEZIER_LOOP"
            }
          ]
        },
        {
          "costume": "textFollow",
          "x": 69,
          "y": 80,
          "text": "bezierLoop",
          "textOutlineColor": "#00000000",
          "attributes": [
            {
              "name": "follow",
              "value": "bezierLoop"
            }
          ]
        }
      ]
    }
  ]
}